0	129	79	131	43	154	50	36
129	0	179	157	146	105	79	119
79	179	0	141	33	207	118	64
131	157	141	0	116	74	134	96
43	146	33	116	0	175	81	27
154	105	207	64	175	0	145	143
50	79	118	134	81	145	0	52
36	119	64	96	27	143	52	0