0	179	129	157	146	105	79	119
179	0	79	141	33	207	118	64
129	79	0	131	43	154	50	36
157	141	131	0	116	74	134	96	
146	33	43	116	0	175	81	27
105	207	154	64	175	0	145	143	
79	118	50	134	81	145	0	52
119	64	36	96	27	143	52	0